[gd_scene load_steps=6 format=3 uid="uid://upqo731o1l3t"]

[ext_resource type="Script" path="res://Scripts/Components/health_bar.gd" id="1_0oxpa"]

[sub_resource type="StyleBoxEmpty" id="StyleBoxEmpty_qrtsh"]

[sub_resource type="StyleBoxFlat" id="StyleBoxFlat_sa3jd"]
bg_color = Color(0, 0.713726, 0.419608, 1)

[sub_resource type="StyleBoxFlat" id="StyleBoxFlat_0yqtr"]
bg_color = Color(0, 0, 0, 1)
expand_margin_left = 1.0
expand_margin_top = 1.0
expand_margin_right = 1.0
expand_margin_bottom = 1.0
shadow_color = Color(0, 0, 0, 0.27451)
shadow_offset = Vector2(0, 1)

[sub_resource type="StyleBoxFlat" id="StyleBoxFlat_aiqmk"]
bg_color = Color(0.898039, 0, 0.403922, 1)

[node name="HealthBar" type="ProgressBar"]
z_index = 1
offset_right = 240.0
offset_bottom = 14.0
theme_override_styles/background = SubResource("StyleBoxEmpty_qrtsh")
theme_override_styles/fill = SubResource("StyleBoxFlat_sa3jd")
value = 60.0
show_percentage = false
script = ExtResource("1_0oxpa")

[node name="Damagebar" type="ProgressBar" parent="."]
z_index = -1
layout_mode = 1
anchors_preset = 15
anchor_right = 1.0
anchor_bottom = 1.0
grow_horizontal = 2
grow_vertical = 2
theme_override_styles/background = SubResource("StyleBoxFlat_0yqtr")
theme_override_styles/fill = SubResource("StyleBoxFlat_aiqmk")
value = 80.0
show_percentage = false

[node name="ShowDamageTime" type="Timer" parent="."]
wait_time = 0.4
one_shot = true

[connection signal="timeout" from="ShowDamageTime" to="." method="_on_show_damage_time_timeout"]
