[gd_scene load_steps=2 format=3 uid="uid://dnvrtsbnx1xne"]

[ext_resource type="Script" path="res://Scripts/Components/HealthComponent.gd" id="1_aevcq"]

[node name="HealthComponent" type="Node2D" groups=["has_health"]]
script = ExtResource("1_aevcq")

[node name="PlayerInvencibleTimer" type="Timer" parent="."]
wait_time = 0.001
one_shot = true

[connection signal="timeout" from="PlayerInvencibleTimer" to="." method="_on_player_invencible_timer_timeout"]
