[gd_scene load_steps=3 format=3 uid="uid://ctc1oqc0dotlh"]

[ext_resource type="Script" path="res://Scripts/GameScripts/EndOfLevel.gd" id="1_oljkc"]

[sub_resource type="RectangleShape2D" id="RectangleShape2D_p4ojl"]
size = Vector2(32, 42.6667)

[node name="EndOfLevel" type="Node2D"]
script = ExtResource("1_oljkc")

[node name="Area2D" type="Area2D" parent="."]

[node name="CollisionShape2D" type="CollisionShape2D" parent="Area2D"]
scale = Vector2(0.5, 0.75)
shape = SubResource("RectangleShape2D_p4ojl")

[connection signal="body_entered" from="Area2D" to="." method="_on_area_2d_body_entered"]
